<svg xmlns="http://www.w3.org/2000/svg" viewBox="1464 5831 35 35">
  <defs>
    <style>
      .cls-1 {
        fill: #06c;
      }
    </style>
  </defs>
  <g id="_Group_" data-name="&lt;Group&gt;" transform="translate(1464 5831)">
    <path id="_Compound_Path_" data-name="&lt;Compound Path&gt;" class="cls-1" d="M-131.395,85.375v2.6c-.05.38-.093.765-.154,1.145a17.426,17.426,0,0,1-3.868,8.693,17.31,17.31,0,0,1-10.436,6.1c-.646.118-1.3.179-1.954.269h-2.187c-.111-.022-.219-.043-.33-.057-.621-.079-1.25-.122-1.86-.244a17.238,17.238,0,0,1-10.055-5.912,16.984,16.984,0,0,1-3.979-13.726,16.662,16.662,0,0,1,3.807-8.665,17.314,17.314,0,0,1,10.464-6.127c.646-.118,1.3-.179,1.954-.269h2.187c.6.075,1.2.126,1.8.23A17.361,17.361,0,0,1-136,74.858a17.147,17.147,0,0,1,4.331,8.729C-131.56,84.191-131.485,84.779-131.395,85.375Zm-20.2,1.913v10.1h4.219V87.278h2.83l.359-3.561h-3.2V81.359a.765.765,0,0,1,.679-.718,8.388,8.388,0,0,1,.988-.047h1.48V77.152c-.083,0-.147-.018-.215-.018-1.106,0-2.208-.022-3.315,0a3.719,3.719,0,0,0-3.774,3.589,24.272,24.272,0,0,0-.05,2.559,2.712,2.712,0,0,1-.025.431h-1.961V87.27Z" transform="translate(166.395 -69.18)"/>
  </g>
</svg>
