<?xml version="1.0" encoding="utf-8"?>
<!-- Generator: Adobe Illustrator 16.0.4, SVG Export Plug-In . SVG Version: 6.00 Build 0)  -->
<!DOCTYPE svg PUBLIC "-//W3C//DTD SVG 1.1//EN" "http://www.w3.org/Graphics/SVG/1.1/DTD/svg11.dtd">
<svg version="1.1" id="Layer_1" xmlns="http://www.w3.org/2000/svg" xmlns:xlink="http://www.w3.org/1999/xlink" x="0px" y="0px"
	 width="84px" height="444px" viewBox="0 0 84 444" enable-background="new 0 0 84 444" xml:space="preserve">
<g>
	<path fill="#F3F3F3" d="M35.246,46.881c-0.12,0.146-0.207,0.239-0.207,0.239c0.086-0.082,0.159-0.139,0.238-0.207L35.246,46.881z"
		/>
	<path fill="#F3F3F3" d="M41.166,7c-18.747,0-34,15.252-34,34s15.252,34,34,34c18.748,0,34-15.252,34-34S59.914,7,41.166,7z
		 M41.166,71c-16.568,0-30-13.432-30-30s13.432-30,30-30c16.568,0,30,13.432,30,30S57.734,71,41.166,71z"/>
	<path fill="#F3F3F3" d="M44.118,38.821c-0.731-0.806-1.777-1.321-2.952-1.321c-0.455,0-0.887,0.093-1.295,0.233l-4.523-5.758
		l1.797-1.412c-2.772-1.384-2.967-2.782-3.268-3.37c-0.301-0.59-0.336-1.498-1.027-2.07c-0.693-0.571-0.928-0.506-1.629-0.24
		c-0.51,0.193-0.461-0.419-1.18-0.327c-0.555,0.071-0.582,0.555-0.824,0.593c-0.26,0.042-0.521-0.56-1.258-0.159
		c-0.6,0.325-0.461,0.944-0.461,0.944s-1.035-0.989-1.922-2.017c-0.734-0.854-1.879-2.399-2.547-1.482
		c-0.258,0.353-0.142,0.773,0.13,1.217l-0.024,0.024l0.096,0.096c0.345,0.516,0.881,1.06,1.311,1.567
		c0.867,1.023,1.934,2.188,2.37,3.761c0.436,1.573,2.504,2.143,3.32,2.802c1.387,1.116,1.436,2.968,1.436,2.968l2.109-1.658
		l4.423,5.63c-0.634,0.708-1.032,1.634-1.032,2.659c0,0.608,0.146,1.18,0.391,1.695l-2.061,2.06l-1.176-1.177
		c-0.795,2.222-1.836,2.495-2.252,2.776c-0.42,0.28-1.104,0.39-1.473,0.965c-0.37,0.575-0.299,0.747-0.035,1.253
		c0.193,0.368-0.273,0.387-0.141,0.922c0.105,0.412,0.474,0.39,0.524,0.569c0.056,0.192-0.376,0.445-0.007,0.966
		c0.301,0.424,0.756,0.263,0.756,0.263s-0.653,0.872-1.35,1.636c-0.579,0.632-1.645,1.64-0.891,2.062
		c0.65,0.365,1.387-0.685,2.059-1.407c0.695-0.747,1.48-1.66,2.629-2.133c1.15-0.473,1.395-2.088,1.817-2.765
		c0.719-1.149,2.114-1.354,2.114-1.354l-1.161-1.161l1.928-1.928c0.657,0.473,1.456,0.759,2.327,0.759c2.209,0,4-1.791,4-4
		c0-0.673-0.182-1.297-0.475-1.854l15.047-8.208l-0.479-0.877L44.118,38.821z M35.246,46.881l0.031,0.032
		c-0.079,0.068-0.152,0.125-0.238,0.207C35.039,47.12,35.126,47.027,35.246,46.881z"/>
	<rect x="40" y="16" fill="#F3F3F3" width="2" height="4"/>
	<rect x="40" y="62" fill="#F3F3F3" width="2" height="4"/>
	
		<rect x="49.851" y="17.826" transform="matrix(0.9238 0.3828 -0.3828 0.9238 11.0425 -17.8407)" fill="#F3F3F3" width="1" height="2.001"/>
	
		<rect x="31.481" y="62.173" transform="matrix(-0.9238 -0.3828 0.3828 -0.9238 37.3434 133.7765)" fill="#F3F3F3" width="1" height="2"/>
	
		<rect x="57.637" y="23.029" transform="matrix(0.7071 0.7071 -0.7071 0.7071 34.0188 -34.071)" fill="#F3F3F3" width="1" height="2"/>
	
		<rect x="23.696" y="56.97" transform="matrix(-0.7071 -0.7071 0.7071 -0.7071 0.3136 116.0694)" fill="#F3F3F3" width="1" height="1.999"/>
	
		<rect x="62.84" y="30.814" transform="matrix(0.3828 0.9238 -0.9238 0.3828 68.4836 -38.8795)" fill="#F3F3F3" width="1" height="2"/>
	
		<rect x="18.494" y="49.184" transform="matrix(-0.3828 -0.9238 0.9238 -0.3828 -20.0963 86.9413)" fill="#F3F3F3" width="1" height="2"/>
	
		<rect x="17.993" y="31.315" transform="matrix(-0.9239 -0.3826 0.3826 -0.9239 24.3671 68.4772)" fill="#F3F3F3" width="2.001" height="1"/>
	
		<rect x="62.34" y="49.685" transform="matrix(-0.9238 -0.3828 0.3828 -0.9238 102.6436 120.7936)" fill="#F3F3F3" width="2" height="1"/>
	
		<rect x="57.137" y="57.471" transform="matrix(-0.7071 -0.7071 0.7071 -0.7071 58.2541 140.071)" fill="#F3F3F3" width="2" height="1"/>
	
		<rect x="30.981" y="18.327" transform="matrix(0.3826 0.9239 -0.9239 0.3826 37.138 -17.9247)" fill="#F3F3F3" width="2.001" height="1"/>
	
		<rect x="49.351" y="62.673" transform="matrix(-0.3828 -0.9238 0.9238 -0.3828 11.2646 133.8714)" fill="#F3F3F3" width="2" height="1"/>
	<rect x="61" y="40" fill="#F3F3F3" width="4" height="2"/>
	<rect x="15" y="40" fill="#F3F3F3" width="4" height="2"/>
</g>
<g>
	<path fill="#F3F3F3" d="M76.211,91.977C75.891,91.594,75.414,92,74.914,92H60.043l-0.34-2.287C59.564,88.904,58.861,88,58.041,88
		H33.574c0-1-1.512-3-3.375-3H13.325c-1.863,0-3.374,2-3.374,3H7.419c-0.498,0-0.97-0.098-1.29,0.283
		c-0.321,0.381-0.457,0.709-0.373,1.199l8.438,49.439c0.184,0.918,0.84,2.078,1.662,2.078h50.431c0.744,0,1.635-1.23,1.879-2.299
		l8.406-45.365C76.664,92.844,76.531,92.363,76.211,91.977z M56,96h1v5h1v-5h2v4.882c0,1.082-0.715,3.118-1.797,3.118H58.13
		c-1.083,0-2.13-2.036-2.13-3.118V96z M64.398,137H18.397l7.007-38H46.85c1.816,0,3.289-1,3.289-3H55v4.882
		c0,1.634,1.496,4.118,3.13,4.118h0.073c1.635,0,2.797-2.484,2.797-4.118V96h11.014L64.398,137z"/>
</g>
<g>
	<g>
		<path fill="#F3F3F3" d="M39.166,163.741c-8.836,0-16,7.163-16,16s7.164,16,16,16c8.837,0,16-7.163,16-16
			S48.003,163.741,39.166,163.741z M53.154,179.155l-1.998,0.082c-0.006-0.153-0.016-0.307-0.027-0.458l1.994-0.16
			C53.137,178.798,53.146,178.977,53.154,179.155z M53.07,178.086l-1.986,0.236c-0.019-0.153-0.039-0.306-0.062-0.456l1.975-0.311
			C53.023,177.731,53.049,177.907,53.07,178.086z M52.904,177.028l-1.963,0.385c-0.029-0.151-0.062-0.301-0.098-0.449l1.947-0.461
			C52.832,176.677,52.869,176.852,52.904,177.028z M52.656,175.984l-1.927,0.535c-0.04-0.147-0.085-0.294-0.132-0.438l1.904-0.611
			C52.557,175.64,52.609,175.812,52.656,175.984z M52.328,174.96l-1.877,0.688c-0.053-0.144-0.108-0.288-0.166-0.43l1.852-0.756
			C52.203,174.627,52.268,174.793,52.328,174.96z M51.926,173.973l-1.823,0.82c-0.062-0.139-0.128-0.275-0.195-0.41l1.788-0.896
			C51.775,173.646,51.853,173.809,51.926,173.973z M51.447,173.014l-1.754,0.963c-0.072-0.134-0.148-0.267-0.227-0.396l1.713-1.031
			C51.271,172.702,51.361,172.856,51.447,173.014z M50.596,171.652c0.104,0.146,0.203,0.294,0.303,0.445l-1.678,1.09
			c-0.083-0.128-0.168-0.253-0.256-0.377L50.596,171.652z M50.275,171.221l-1.582,1.223c-0.094-0.122-0.191-0.243-0.289-0.362
			l1.54-1.275C50.057,170.942,50.168,171.081,50.275,171.221z M49.594,170.4l-1.49,1.332c-0.102-0.114-0.207-0.226-0.312-0.335
			l1.438-1.391C49.354,170.136,49.475,170.267,49.594,170.4z M48.848,169.627l-1.381,1.447c-0.111-0.105-0.225-0.21-0.34-0.312
			l1.328-1.496C48.588,169.384,48.719,169.504,48.848,169.627z M48.051,168.922l-1.277,1.539c-0.117-0.097-0.236-0.19-0.357-0.283
			l1.211-1.592C47.77,168.694,47.911,168.806,48.051,168.922z M47.195,168.271l-1.152,1.635c-0.125-0.088-0.251-0.173-0.379-0.255
			l1.082-1.682C46.898,168.067,47.047,168.168,47.195,168.271z M46.288,167.685l-1.013,1.725c-0.133-0.078-0.268-0.154-0.403-0.228
			l0.952-1.76C45.98,167.507,46.135,167.595,46.288,167.685z M45.352,167.179l-0.893,1.789c-0.135-0.067-0.272-0.131-0.41-0.192
			l0.81-1.828C45.024,167.021,45.189,167.098,45.352,167.179z M44.369,166.74l-0.751,1.854c-0.141-0.057-0.282-0.11-0.426-0.161
			l0.669-1.885C44.031,166.608,44.201,166.672,44.369,166.74z M42.84,166.229c0.17,0.047,0.34,0.097,0.508,0.149l-0.59,1.91
			c-0.146-0.045-0.296-0.089-0.446-0.13L42.84,166.229z M41.793,165.987c0.174,0.033,0.347,0.069,0.518,0.108l-0.436,1.951
			c-0.152-0.033-0.305-0.065-0.457-0.095L41.793,165.987z M40.732,165.828c0.18,0.021,0.359,0.044,0.535,0.071l-0.307,1.977
			c-0.148-0.023-0.299-0.043-0.451-0.06L40.732,165.828z M39.664,165.75c0.18,0.006,0.359,0.016,0.539,0.029l-0.154,1.994
			c-0.15-0.012-0.303-0.02-0.455-0.025L39.664,165.75z M39,165.742v2c0,0-0.24,0.004-0.391,0.01l-0.116-1.998
			C38.673,165.746,39,165.742,39,165.742z M38.061,165.783l0.152,1.994c-0.152,0.012-0.303,0.027-0.453,0.045l-0.236-1.986
			C37.701,165.814,37.881,165.797,38.061,165.783z M36.99,165.909l0.316,1.975c-0.152,0.024-0.305,0.051-0.455,0.08l-0.389-1.961
			C36.637,165.968,36.812,165.938,36.99,165.909z M35.938,166.114l0.469,1.945c-0.152,0.036-0.303,0.074-0.451,0.115l-0.531-1.928
			C35.594,166.2,35.764,166.156,35.938,166.114z M34.912,166.399l0.6,1.908c-0.145,0.045-0.287,0.095-0.43,0.146l-0.684-1.879
			C34.568,166.513,34.739,166.454,34.912,166.399z M33.904,166.764l0.744,1.857c-0.141,0.056-0.279,0.115-0.416,0.177l-0.826-1.82
			C33.57,166.902,33.736,166.831,33.904,166.764z M32.925,167.206l0.894,1.789c-0.139,0.069-0.273,0.141-0.408,0.214l-0.958-1.756
			C32.607,167.368,32.766,167.285,32.925,167.206z M31.987,167.72l1.024,1.717c-0.13,0.078-0.258,0.158-0.386,0.242l-1.096-1.674
			C31.68,167.907,31.833,167.812,31.987,167.72z M31.09,168.306l1.154,1.633c-0.125,0.089-0.248,0.18-0.371,0.273l-1.214-1.59
			C30.801,168.515,30.943,168.408,31.09,168.306z M30.236,168.957l1.281,1.537c-0.119,0.099-0.236,0.199-0.352,0.303l-1.332-1.492
			C29.967,169.188,30.101,169.071,30.236,168.957z M29.441,169.67l1.389,1.439c-0.109,0.105-0.217,0.214-0.322,0.324l-1.445-1.383
			C29.187,169.921,29.312,169.795,29.441,169.67z M28.697,170.445l1.5,1.324c-0.104,0.116-0.205,0.233-0.303,0.353l-1.543-1.271
			C28.465,170.714,28.58,170.579,28.697,170.445z M28.016,171.274l1.596,1.205c-0.094,0.124-0.184,0.249-0.273,0.375l-1.636-1.15
			C27.805,171.559,27.908,171.416,28.016,171.274z M27.401,172.15l1.681,1.084c-0.084,0.13-0.165,0.262-0.244,0.394l-1.719-1.023
			C27.211,172.451,27.305,172.3,27.401,172.15z M26.855,173.072l1.756,0.957c-0.073,0.134-0.144,0.27-0.211,0.406l-1.793-0.885
			C26.687,173.389,26.77,173.229,26.855,173.072z M26.379,174.036l1.826,0.816c-0.062,0.14-0.123,0.281-0.18,0.424l-1.857-0.746
			C26.236,174.364,26.305,174.199,26.379,174.036z M25.979,175.032l1.883,0.674c-0.051,0.144-0.1,0.29-0.146,0.437l-1.908-0.6
			C25.861,175.371,25.918,175.201,25.979,175.032z M25.656,176.058l1.93,0.527c-0.04,0.146-0.078,0.294-0.111,0.443l-1.949-0.449
			C25.566,176.404,25.609,176.229,25.656,176.058z M25.414,177.104l1.965,0.373c-0.027,0.15-0.055,0.302-0.076,0.454l-1.979-0.299
			C25.352,177.454,25.381,177.279,25.414,177.104z M25.254,178.163l1.988,0.225c-0.018,0.151-0.031,0.303-0.043,0.456l-1.994-0.146
			C25.219,178.519,25.234,178.34,25.254,178.163z M25,179.741c0-0.17,0.086-0.34,0.093-0.51l2.04,0.072
			c-0.005,0.145-0.07,0.291-0.07,0.438L25,179.765V179.741z M25.178,180.303l1.998-0.08c0.006,0.154,0.016,0.308,0.027,0.46
			l-1.994,0.154C25.195,180.659,25.184,180.48,25.178,180.303z M25.26,181.37l1.986-0.23c0.018,0.153,0.039,0.304,0.062,0.454
			l-1.977,0.309C25.305,181.727,25.281,181.549,25.26,181.37z M25.424,182.428l1.965-0.379c0.029,0.15,0.061,0.3,0.096,0.448
			l-1.947,0.457C25.496,182.78,25.459,182.605,25.424,182.428z M25.67,183.475l1.928-0.535c0.041,0.148,0.084,0.297,0.131,0.443
			l-1.906,0.604C25.768,183.816,25.717,183.646,25.67,183.475z M25.994,184.495l1.882-0.68c0.052,0.145,0.106,0.287,0.163,0.429
			l-1.852,0.752C26.119,184.831,26.056,184.663,25.994,184.495z M26.396,185.486l1.824-0.818c0.062,0.14,0.129,0.277,0.195,0.413
			l-1.791,0.891C26.547,185.811,26.469,185.649,26.396,185.486z M26.873,186.446l1.756-0.959c0.072,0.134,0.148,0.266,0.227,0.396
			l-1.715,1.029C27.049,186.759,26.959,186.604,26.873,186.446z M27.722,187.807c-0.103-0.146-0.202-0.293-0.3-0.443l1.678-1.088
			c0.084,0.129,0.17,0.255,0.258,0.381L27.722,187.807z M28.042,188.243l1.585-1.221c0.094,0.122,0.189,0.243,0.287,0.362
			l-1.541,1.273C28.26,188.521,28.15,188.383,28.042,188.243z M28.723,189.064l1.492-1.332c0.102,0.114,0.205,0.227,0.311,0.336
			l-1.438,1.391C28.963,189.33,28.842,189.198,28.723,189.064z M29.465,189.835l1.389-1.439c0.109,0.105,0.222,0.209,0.336,0.311
			l-1.33,1.494C29.727,190.081,29.594,189.96,29.465,189.835z M30.268,190.55l1.271-1.545c0.118,0.098,0.239,0.193,0.36,0.286
			l-1.211,1.592C30.545,190.774,30.404,190.663,30.268,190.55z M31.119,191.198l1.152-1.635c0.125,0.089,0.253,0.175,0.383,0.259
			l-1.092,1.676C31.412,191.4,31.264,191.301,31.119,191.198z M32.02,191.782l1.023-1.719c0.131,0.078,0.264,0.153,0.396,0.226
			l-0.951,1.76C32.33,191.963,32.174,191.874,32.02,191.782z M32.966,192.296l0.883-1.795c0.139,0.068,0.278,0.135,0.421,0.198
			l-0.822,1.824C33.285,192.45,33.125,192.374,32.966,192.296z M33.947,192.735l0.74-1.857c0.145,0.058,0.289,0.113,0.436,0.166
			l-0.678,1.881C34.277,192.864,34.111,192.801,33.947,192.735z M34.957,193.098l0.6-1.908c0.146,0.046,0.294,0.09,0.441,0.13
			l-0.527,1.93C35.298,193.201,35.127,193.151,34.957,193.098z M36.516,193.49c-0.174-0.034-0.35-0.07-0.522-0.11l0.448-1.949
			c0.149,0.034,0.299,0.066,0.451,0.095L36.516,193.49z M37.576,193.652c-0.182-0.021-0.361-0.044-0.541-0.073l0.318-1.975
			c0.148,0.023,0.297,0.043,0.445,0.06L37.576,193.652z M38.646,193.731c-0.184-0.006-0.365-0.016-0.545-0.031l0.165-1.992
			c0.149,0.012,0.299,0.02,0.45,0.025L38.646,193.731z M31.416,179.741c0-4.273,3.477-7.75,7.75-7.75s7.75,3.477,7.75,7.75
			s-3.477,7.75-7.75,7.75S31.416,184.015,31.416,179.741z M39.184,193.742l-0.012-2c0.156-0.001,0.311-0.004,0.463-0.01l0.083,1.998
			C39.541,193.738,39.363,193.741,39.184,193.742z M40.256,193.7l-0.165-1.994c0.155-0.013,0.312-0.027,0.466-0.045l0.225,1.988
			C40.606,193.669,40.432,193.686,40.256,193.7z M41.32,193.577l-0.316-1.975c0.154-0.024,0.307-0.052,0.459-0.081l0.379,1.965
			C41.668,193.52,41.494,193.549,41.32,193.577z M42.367,193.374l-0.457-1.947c0.149-0.035,0.299-0.073,0.445-0.113l0.531,1.928
			C42.715,193.289,42.542,193.333,42.367,193.374z M43.403,193.088l-0.609-1.904c0.147-0.048,0.294-0.097,0.44-0.148l0.672,1.883
			C43.74,192.978,43.572,193.034,43.403,193.088z M44.406,192.728l-0.742-1.857c0.141-0.057,0.281-0.116,0.42-0.179l0.816,1.826
			C44.736,192.59,44.572,192.661,44.406,192.728z M45.389,192.286l-0.895-1.789c0.137-0.069,0.273-0.14,0.408-0.213l0.957,1.756
			C45.704,192.125,45.547,192.207,45.389,192.286z M46.326,191.774l-1.025-1.717c0.131-0.079,0.262-0.16,0.391-0.244l1.086,1.68
			C46.629,191.589,46.479,191.684,46.326,191.774z M47.225,191.191l-1.154-1.633c0.125-0.089,0.248-0.179,0.371-0.272l1.213,1.59
			C47.514,190.983,47.369,191.089,47.225,191.191z M48.074,190.544l-1.273-1.543c0.119-0.098,0.234-0.197,0.349-0.299l1.331,1.492
			C48.348,190.313,48.211,190.431,48.074,190.544z M48.873,189.828l-1.387-1.439c0.111-0.107,0.219-0.216,0.326-0.326l1.439,1.389
			C49.129,189.579,49.002,189.705,48.873,189.828z M49.617,189.059l-1.493-1.332c0.103-0.114,0.202-0.23,0.3-0.349l1.541,1.273
			C49.852,188.789,49.736,188.925,49.617,189.059z M50.299,188.23l-1.59-1.213c0.094-0.122,0.185-0.246,0.273-0.371l1.635,1.152
			C50.514,187.945,50.408,188.089,50.299,188.23z M50.92,187.35l-1.683-1.08c0.085-0.132,0.167-0.264,0.247-0.396l1.717,1.025
			C51.109,187.051,51.016,187.2,50.92,187.35z M51.467,186.433l-1.756-0.959c0.074-0.134,0.145-0.27,0.211-0.406l1.793,0.887
			C51.635,186.116,51.553,186.275,51.467,186.433z M51.943,185.471l-1.824-0.82c0.063-0.14,0.123-0.281,0.182-0.423l1.854,0.748
			C52.088,185.143,52.018,185.308,51.943,185.471z M52.348,184.473l-1.885-0.672c0.053-0.146,0.102-0.292,0.148-0.438l1.907,0.603
			C52.465,184.136,52.407,184.304,52.348,184.473z M52.67,183.449l-1.929-0.529c0.04-0.146,0.077-0.296,0.112-0.445l1.948,0.455
			C52.762,183.104,52.717,183.277,52.67,183.449z M52.913,182.404l-1.964-0.379c0.029-0.15,0.055-0.301,0.078-0.452l1.977,0.303
			C52.978,182.053,52.947,182.229,52.913,182.404z M53.076,181.346l-1.987-0.229c0.017-0.15,0.032-0.303,0.043-0.456l1.995,0.15
			C53.113,180.99,53.096,181.168,53.076,181.346z M53.073,180.277l-1.957-0.076c0.006-0.152-0.054-0.306-0.054-0.46L53,179.693
			v0.062C53,179.921,53.08,180.1,53.073,180.277z"/>
		<path fill="#F3F3F3" d="M39.166,172.991c-3.721,0-6.75,3.028-6.75,6.75s3.029,6.75,6.75,6.75c3.723,0,6.75-3.028,6.75-6.75
			S42.889,172.991,39.166,172.991z M39.166,185.741c-3.313,0-6-2.687-6-6s2.687-6,6-6c3.314,0,6,2.687,6,6
			S42.48,185.741,39.166,185.741z"/>
	</g>
	<g>
		<path fill="#F3F3F3" d="M66.166,151h-50c-2.209,0-4.167,1.532-4.167,3.741v50c0,2.209,1.958,4.259,4.167,4.259h50
			c2.209,0,3.834-2.05,3.834-4.259v-6v-8v-21v-8v-7C70,152.532,68.375,151,66.166,151z M66,205H16v-50h50v2.741c-2,0-4,1.791-4,4v8
			c0,2.209,2,4,4,4v13c-2,0-4,1.791-4,4v8c0,2.209,2,4,4,4V205z"/>
	</g>
</g>
<g>
	<path fill="#F3F3F3" d="M76,253h-8.305c0.05,0,0.102-0.384,0.16-0.585c0.06-0.225,0.125-0.497,0.197-0.768
		c0.043-0.283,0.09-0.602,0.139-0.929c0.088-0.662,0.188-1.442,0.174-2.253c0.008-0.411-0.004-0.842-0.008-1.291
		c-0.025-0.443-0.086-0.898-0.139-1.372c-0.07-0.958-0.34-1.923-0.57-2.949c-0.32-0.987-0.619-2.047-1.111-3.035
		c-0.427-1.025-1.005-1.992-1.589-2.961c-0.649-0.918-1.269-1.877-2.042-2.681c-0.378-0.407-0.719-0.847-1.123-1.216
		c-0.402-0.369-0.799-0.733-1.189-1.092c-0.395-0.354-0.816-0.665-1.225-0.971c-0.406-0.308-0.805-0.607-1.223-0.857
		c-0.813-0.529-1.61-0.981-2.375-1.343c-0.379-0.185-0.744-0.356-1.096-0.51c-0.357-0.136-0.699-0.266-1.02-0.388
		c-0.355-0.13-0.682-0.24-0.99-0.336c1.944-2.355,3.144-5.539,3.911-8.333C52.306,222.732,47,226.038,42,227.337V219h-2v8.252
		c0-0.049-0.191-0.102-0.394-0.16c-0.224-0.06-0.399-0.125-0.67-0.196c-0.283-0.044-0.554-0.09-0.881-0.14
		c-0.661-0.087-1.419-0.187-2.229-0.172c-0.412-0.01-0.83,0.003-1.279,0.006c-0.443,0.025-0.893,0.087-1.366,0.139
		c-0.958,0.07-1.92,0.34-2.945,0.571c-0.988,0.319-2.046,0.619-3.034,1.11c-1.025,0.427-1.991,1.005-2.96,1.589
		c-0.919,0.649-1.876,1.27-2.681,2.042c-0.407,0.378-0.847,0.72-1.216,1.123c-0.369,0.402-0.733,0.8-1.092,1.19
		c-0.354,0.395-0.665,0.815-0.971,1.224c-0.307,0.407-0.607,0.805-0.857,1.223c-0.529,0.814-0.98,1.61-1.343,2.375
		c-0.185,0.38-0.356,0.745-0.51,1.096c-0.136,0.359-0.266,0.699-0.387,1.019c-0.131,0.357-0.241,0.684-0.337,0.991
		c-2.355-1.943-5.539-3.117-8.333-3.885c3.6,4.272,6.907,8.604,8.206,14.604H6v2h8.637c-0.049,0-0.102,0.165-0.16,0.366
		c-0.059,0.225-0.125,0.388-0.197,0.658c-0.043,0.283-0.089,0.547-0.139,0.874c-0.087,0.662-0.188,1.415-0.173,2.226
		c-0.009,0.411,0.004,0.828,0.007,1.277c0.025,0.443,0.086,0.892,0.139,1.365c0.07,0.958,0.34,1.919,0.571,2.945
		c0.319,0.988,0.619,2.046,1.11,3.034c0.427,1.025,1.005,1.99,1.589,2.959c0.649,0.918,1.269,1.877,2.042,2.681
		c0.378,0.407,0.72,0.847,1.123,1.216c0.402,0.369,0.8,0.733,1.19,1.092c0.395,0.354,0.815,0.665,1.224,0.971
		c0.407,0.308,0.805,0.607,1.223,0.857c0.814,0.529,1.611,0.981,2.375,1.343c0.381,0.185,0.745,0.356,1.096,0.51
		c0.359,0.136,0.699,0.266,1.02,0.388c0.357,0.13,0.684,0.24,0.99,0.336c-1.943,2.355-3.31,5.539-4.076,8.333
		c4.271-3.601,9.41-6.906,14.41-8.205V289h2v-8.689c0,0.049,0.357,0.102,0.56,0.16c0.225,0.06,0.483,0.125,0.754,0.196
		c0.283,0.044,0.595,0.09,0.922,0.14c0.662,0.087,1.439,0.187,2.25,0.172c0.411,0.01,0.84-0.003,1.289-0.006
		c0.443-0.025,0.898-0.087,1.371-0.139c0.958-0.07,1.923-0.34,2.948-0.571c0.988-0.319,2.047-0.619,3.036-1.11
		c1.025-0.427,1.991-1.005,2.96-1.589c0.919-0.649,1.876-1.27,2.681-2.042c0.408-0.378,0.847-0.72,1.216-1.123
		c0.369-0.402,0.734-0.8,1.093-1.19c0.354-0.395,0.665-0.815,0.971-1.224c0.307-0.407,0.606-0.805,0.856-1.223
		c0.529-0.814,0.98-1.61,1.344-2.375c0.184-0.38,0.355-0.745,0.51-1.096c0.135-0.359,0.266-0.699,0.387-1.019
		c0.131-0.357,0.24-0.684,0.336-0.991c2.355,1.943,5.539,3.336,8.334,4.104C72.216,265.112,68.909,260,67.609,255H76V253z
		 M53.938,265.223c2.307,0.371,5.377,0.294,8.057-0.338c-0.18,0.247-0.368,0.462-0.564,0.733c-0.201,0.275-0.383,0.558-0.615,0.842
		c-0.232,0.285-0.475,0.564-0.705,0.876c-0.224,0.316-0.493,0.604-0.766,0.907c-0.279,0.294-0.521,0.629-0.814,0.931
		c-0.594,0.599-1.178,1.238-1.834,1.83c-0.631,0.621-1.334,1.182-2.021,1.766c-0.365,0.264-0.713,0.553-1.07,0.832
		c-0.354,0.286-0.746,0.506-1.104,0.78c-0.361,0.272-0.732,0.522-1.117,0.742c-0.375,0.236-0.742,0.489-1.117,0.712
		c-0.764,0.411-1.492,0.875-2.23,1.223c-0.369,0.19-0.727,0.375-1.074,0.554c-0.357,0.16-0.705,0.315-1.037,0.464
		c-0.674,0.334-1.289,0.568-1.855,0.803c-0.287,0.123-0.555,0.239-0.803,0.346c-0.264,0.093-0.527,0.179-0.746,0.256
		c-0.187,0.07-0.52,0.134-0.52,0.192V263h-2v16.398c-4-3.273-7.838-7.876-10.249-12.845c-0.371,2.306-0.307,5.376,0.325,8.056
		c-0.247-0.18-0.469-0.368-0.739-0.565c-0.276-0.2-0.562-0.382-0.847-0.614c-0.284-0.232-0.565-0.477-0.877-0.706
		c-0.316-0.223-0.605-0.492-0.907-0.765c-0.295-0.28-0.63-0.522-0.932-0.815c-0.599-0.593-1.24-1.177-1.832-1.835
		c-0.62-0.63-1.18-1.332-1.765-2.021c-0.264-0.364-0.554-0.714-0.831-1.07c-0.287-0.353-0.505-0.745-0.782-1.104
		c-0.271-0.361-0.522-0.732-0.741-1.116c-0.236-0.376-0.489-0.742-0.711-1.118c-0.412-0.763-0.876-1.492-1.224-2.231
		c-0.19-0.368-0.375-0.726-0.554-1.072c-0.161-0.358-0.315-0.705-0.464-1.039c-0.333-0.673-0.567-1.288-0.802-1.854
		c-0.124-0.287-0.239-0.555-0.346-0.803c-0.093-0.264-0.179-0.335-0.256-0.554c-0.07-0.188-0.133-0.327-0.193-0.327H32v-2H15.549
		c3.275-4,7.876-8.029,12.846-10.441c-2.307-0.371-5.375-0.403-8.055,0.229c0.18-0.247,0.368-0.517,0.564-0.788
		c0.2-0.275,0.382-0.585,0.615-0.869c0.232-0.285,0.475-0.578,0.705-0.89c0.224-0.316,0.493-0.611,0.765-0.914
		c0.28-0.294,0.521-0.632,0.815-0.935c0.593-0.598,1.177-1.239,1.835-1.833c0.631-0.619,1.333-1.182,2.021-1.764
		c0.364-0.266,0.713-0.555,1.07-0.834c0.352-0.286,0.744-0.506,1.103-0.78c0.362-0.272,0.733-0.522,1.117-0.742
		c0.376-0.236,0.742-0.489,1.117-0.712c0.764-0.411,1.493-0.875,2.231-1.223c0.367-0.19,0.727-0.375,1.072-0.554
		c0.359-0.16,0.706-0.315,1.039-0.464c0.674-0.334,1.289-0.568,1.855-0.803c0.285-0.123,0.554-0.239,0.801-0.346
		c0.265-0.093,0.361-0.179,0.58-0.256c0.188-0.07,0.354-0.134,0.354-0.192V245h2v-16.836c4,3.273,8.004,7.876,10.416,12.845
		c0.37-2.306,0.39-5.376-0.242-8.056c0.247,0.18,0.511,0.368,0.78,0.565c0.277,0.2,0.583,0.382,0.867,0.614
		c0.285,0.232,0.576,0.477,0.888,0.706c0.316,0.223,0.611,0.492,0.913,0.765c0.294,0.28,0.632,0.522,0.935,0.815
		c0.598,0.593,1.24,1.177,1.832,1.835c0.62,0.63,1.181,1.332,1.766,2.021c0.264,0.364,0.554,0.714,0.832,1.07
		c0.286,0.353,0.506,0.745,0.781,1.104c0.271,0.361,0.522,0.732,0.742,1.116c0.236,0.376,0.488,0.742,0.711,1.118
		c0.411,0.763,0.875,1.492,1.223,2.231c0.19,0.368,0.375,0.726,0.555,1.072c0.16,0.358,0.314,0.705,0.464,1.039
		c0.333,0.673,0.567,1.288,0.802,1.854c0.123,0.287,0.239,0.555,0.346,0.803c0.094,0.264,0.18,0.554,0.256,0.772
		c0.07,0.188,0.134,0.546,0.193,0.546H50v2h16.784C63.51,259,58.908,262.811,53.938,265.223z"/>
</g>
<path fill="#FFFFFF" d="M69.518,324.496c-14.308-31.17-59.5-25-59.5-25s-6,39.564,29,55c9.992,4.406,18.264,3.851,24.076,0.338
	c1.443,2.174,3.257,5.58,3.257,8.995l4.29-4.333c0,0-1.026-3.341-4.589-6.882C72.709,346.42,74.512,335.377,69.518,324.496z
	 M47.306,330.516c-7.636-2.678-18.813-3.66-19.038-3.645c6.392-0.954,12.3-0.256,15.772,0.383
	c-5.664-5.52-12.916-11.896-22.006-18.699c0,0,13.773,5.706,25.445,17.595c1.069-6.718,3.763-9.542,3.763-9.542
	c-1.302,4.776-1.314,9.497-1.139,12.379c4.307,4.91,8.133,10.722,10.581,17.479C60.685,346.466,56.718,340.166,47.306,330.516z"/>
<g>
	<path fill="#FFFFFF" d="M49.9,377.875c11.689,0,21.1,9.386,21.1,21.075v9.6c0,3.617-0.848,7.192-2.609,10.338l-0.795,1.494
		l0.524,1.637l2.57,8.319l-7.023-3.263l-1.824-0.849l-1.768,1.088C56.995,428.989,53.5,430,49.967,430h-19.6
		C18.677,430,9,420.239,9,408.55v-9.6C9,387.261,18.677,378,30.367,378H50 M49.967,374h-19.6C16.449,374,5,385.032,5,398.95v9.6
		C5,422.468,16.449,434,30.367,434h19.6c4.354,0,8.448-1.229,12.021-3.172l15.178,6.984l-5.285-16.939
		C73.917,417.236,75,413.015,75,408.55v-9.6C75,385.032,63.801,374,49.883,374H49.967z"/>
	<circle opacity="0.75" fill="#FFFFFF" cx="40.166" cy="403.75" r="5"/>
	<circle opacity="0.5" fill="#FFFFFF" cx="56.166" cy="403.75" r="5"/>
	<circle fill="#FFFFFF" cx="24.166" cy="403.75" r="5"/>
</g>
</svg>
